{
	"name": "StructuredBlockReasons",
	"author": [
		"Your Name"
	],
	"url": "https://www.mediawiki.org/wiki/Extension:StructuredBlockReasons",
	"descriptionmsg": "structuredblockreasons-desc",
	"license-name": "GPL-2.0-or-later",
	"type": "other",
	"requires": {
		"MediaWiki": ">= 1.42.0",
		"extensions": {
			"CommunityConfiguration": "*"
		}
	},
	"attributes": {
		"CommunityConfiguration": {
			"EditorCapabilities": {
				"BlockCategories": {
					"class": "MediaWiki\\Extension\\StructuredBlockReasons\\EditorCapabilities\\BlockCategoriesEditorCapability"
				}
			},
			"Providers": {
				"BlockCategories": {
					"store": {
						"type": "wikipage",
						"args": ["MediaWiki:BlockCategories.json"]
					},
					"validator": {
						"type": "jsonschema",
						"args": ["MediaWiki\\Extension\\StructuredBlockReasons\\Schemas\\BlockCategoriesSchema"]
					},
					"options": {
						"editorCapability": "BlockCategories"
					}
				}
			}
		}
	},
	"AutoloadNamespaces": {
		"MediaWiki\\Extension\\StructuredBlockReasons\\": "src/"
	},
	"config": {
	},
	"HookHandlers": {
	},
	"Hooks": {
	},
	"MessagesDirs": {
		"BoilerPlate": [
			"i18n"
		]
	},
	"manifest_version": 2
}
